Optimal Parameters-based Geographical Detector(OPGD)
…
g
## $x
## [1] "GDP"           "Popdensity"    "Precipitation" "Tempchange"   
## 
## $k
## [1] 14 15 15 15
## 
## $method
## [1] "quantile" "quantile" "fisher"   "equal"   
## 
## $disv
## # A tibble: 713 × 4
##      GDP Popdensity Precipitation Tempchange
##    <int>      <int>         <int>      <int>
##  1     7          6             5          3
##  2     5          4             4          3
##  3     7         10            10          3
##  4     3          1             4          4
##  5     3          2             4          3
##  6     3          3             4          3
##  7     7          6             4          3
##  8     8          8             5          3
##  9    11         11             7          3
## 10     8          9             8          3
## # ℹ 703 more rows
new.ndvi = g$disv
new.ndvi
## # A tibble: 713 × 4
##      GDP Popdensity Precipitation Tempchange
##    <int>      <int>         <int>      <int>
##  1     7          6             5          3
##  2     5          4             4          3
##  3     7         10            10          3
##  4     3          1             4          4
##  5     3          2             4          3
##  6     3          3             4          3
##  7     7          6             4          3
##  8     8          8             5          3
##  9    11         11             7          3
## 10     8          9             8          3
## # ℹ 703 more rows

The new.ndvi is the discreted result of the optimal
discretization parameter based on the Q statistic of the geographical
detector (factor detector), we can combine it with other columns in
ndvi tibble now.

new.ndvi = bind_cols(select(ndvi,NDVIchange,Climatezone,Mining),new.ndvi)
new.ndvi
## # A tibble: 713 × 7
##    NDVIchange Climatezone Mining   GDP Popdensity Precipitation Tempchange
##         <dbl> <chr>       <fct>  <int>      <int>         <int>      <int>
##  1    0.116   Bwk         low        7          6             5          3
##  2    0.0178  Bwk         low        5          4             4          3
##  3    0.138   Bsk         low        7         10            10          3
##  4    0.00439 Bwk         low        3          1             4          4
##  5    0.00316 Bwk         low        3          2             4          3
##  6    0.00838 Bwk         low        3          3             4          3
##  7    0.0335  Bwk         low        7          6             4          3
##  8    0.0387  Bwk         low        8          8             5          3
##  9    0.0882  Bsk         low       11         11             7          3
## 10    0.0690  Bsk         low        8          9             8          3
## # ℹ 703 more rows
…
